---
title: 'Blog 5: The Air War - Advertisements'
author: June Park
date: '2022-10-11'
slug: []
categories: []
tags: []
---

Introduction

This week, I explored the effect of political advertisements on the Democratic vote share of Congressional district level.

## # A tibble: 152 × 5
##    state    st_cd_fips model  r_squared coefficient
##    <chr>    <chr>      <list>     <dbl>       <dbl>
##  1 Alabama  0102       <lm>       1           0.276
##  2 Alabama  0106       <lm>       0.995      -0.124
##  3 Arizona  0401       <lm>       0.738       0.153
##  4 Arizona  0402       <lm>       1.00        0.270
##  5 Arizona  0405       <lm>       1          -0.561
##  6 Arizona  0408       <lm>       0.666       1.69 
##  7 Arizona  0409       <lm>       1           0.173
##  8 Arkansas 0501       <lm>       1           0.163
##  9 Arkansas 0502       <lm>       0.120       0.180
## 10 Arkansas 0504       <lm>       0.742       0.225
## # … with 142 more rows
