Post Election Reflection · June Park's Election Analytics Blog
…
Using my model, I predicted that the Democrats would win 216 seats, while the Republicans would win 219 seats, resulting in a slim Republican majority in the House of Representatives.

My lower bound at the 95% confidence level predicted that Democrats would win 213 seats, while the Republicans would win 222 seats, resulting in a larger Republican victory than my prediction.

My upper bound predicted that Democrats would win 218 seats, while the Republicans would win 217 seats, resulting in the slimmest Democratic victory possible.

## [1] 14.85908

## # A tibble: 45 × 4
##    State      District `Actual Dem Vote Share` `Predicted Dem Vote Share`
##    <chr>      <chr>                      <dbl>                      <dbl>
##  1 Arizona    04                          56.1                       48.4
##  2 Arizona    09                           0                         66.9
##  3 California 04                          67.5                       35.1
##  4 California 05                          38.4                       79.6
##  5 California 08                          75.7                       17.1
##  6 California 13                          49.6                       68.5
##  7 California 20                          32.5                       79.6
##  8 California 27                          45.8                       66.3
##  9 California 40                          42.8                       57.0
## 10 California 42                          66.8                       31.4
## # … with 35 more rows
…
